[
  {
    "evt_dt": 1609459200000,
    "building": "C",
    "meterId": "DB_1_1",
    "reading": 20000
  },
  {
    "evt_dt": 1609459500000,
    "building": "C",
    "meterId": "DB_1_1",
    "reading": 20010
  },
  {
    "evt_dt": 1609459800000,
    "building": "C",
    "meterId": "DB_1_1",
    "reading": 20025
  },
  {
    "evt_dt": 1609460100000,
    "building": "C",
    "meterId": "DB_1_1",
    "reading": 20030
  },
  {
    "evt_dt": 1609460400000,
    "building": "C",
    "meterId": "DB_1_1",
    "reading": 20040
  }
]